Group Project, Advanced R
…
life_expectancy <- life_expectancy |>
  mutate(Decade = case_when(Year >= 1950 & Year < 1960 ~ 1950,        # Create Decade columns 
                            Year >= 1960 & Year < 1970 ~ 1960,
                            Year >= 1970 & Year < 1980 ~ 1970,
                            Year >= 1980 & Year < 1990 ~ 1980,
                            Year >= 1990 & Year < 2000 ~ 1990,
                            Year >= 2000 & Year < 2010 ~ 2000,
                            Year >= 2010 & Year < 2020 ~ 2010)) |>
  filter(!is.na(Decade))                                              # Remove NAs

life_expectancy

# A tibble: 17,990 × 5
   Entity      Code   Year LifeExpectancy Decade
   <chr>       <chr> <dbl>          <dbl>  <dbl>
 1 Afghanistan AFG    1950           27.7   1950
 2 Afghanistan AFG    1951           28.0   1950
 3 Afghanistan AFG    1952           28.4   1950
 4 Afghanistan AFG    1953           28.9   1950
 5 Afghanistan AFG    1954           29.2   1950
 6 Afghanistan AFG    1955           29.9   1950
 7 Afghanistan AFG    1956           30.4   1950
 8 Afghanistan AFG    1957           30.9   1950
 9 Afghanistan AFG    1958           31.5   1950
10 Afghanistan AFG    1959           32.0   1950
# ℹ 17,980 more rows
…
life_expectancy_region

# A tibble: 16,100 × 7
   Entity      Code   Year LifeExpectancy Decade Continent Region    
   <chr>       <chr> <dbl>          <dbl>  <dbl> <chr>     <chr>     
 1 Afghanistan AFG    1950           27.7   1950 Asia      South Asia
 2 Afghanistan AFG    1951           28.0   1950 Asia      South Asia
 3 Afghanistan AFG    1952           28.4   1950 Asia      South Asia
 4 Afghanistan AFG    1953           28.9   1950 Asia      South Asia
 5 Afghanistan AFG    1954           29.2   1950 Asia      South Asia
 6 Afghanistan AFG    1955           29.9   1950 Asia      South Asia
 7 Afghanistan AFG    1956           30.4   1950 Asia      South Asia
 8 Afghanistan AFG    1957           30.9   1950 Asia      South Asia
 9 Afghanistan AFG    1958           31.5   1950 Asia      South Asia
10 Afghanistan AFG    1959           32.0   1950 Asia      South Asia
# ℹ 16,090 more rows
…
Then I check for NAs

na_list <- life_expectancy_pop %>%
  filter(is.na(Population)) %>%
  distinct(Code, Entity) %>%
  arrange(Code)

na_list

# A tibble: 230 × 2
   Code  Entity              
   <chr> <chr>               
 1 ABW   Aruba               
 2 AFG   Afghanistan         
 3 AGO   Angola              
 4 AIA   Anguilla            
 5 ALB   Albania             
 6 AND   Andorra             
 7 ARE   United Arab Emirates
 8 ARG   Argentina           
 9 ARM   Armenia             
10 ASM   American Samoa      
# ℹ 220 more rows
…
